^C:\USERS\SUJAY.SHAH\DESKTOP\DRYENGINE\COMPONENTS\ASTEROIDSPAWNER.CPP|C:\USERS\SUJAY.SHAH\DESKTOP\DRYENGINE\COMPONENTS\BODY.CPP|C:\USERS\SUJAY.SHAH\DESKTOP\DRYENGINE\COMPONENTS\COMPONENT.CPP|C:\USERS\SUJAY.SHAH\DESKTOP\DRYENGINE\COMPONENTS\CONTROLLER.CPP|C:\USERS\SUJAY.SHAH\DESKTOP\DRYENGINE\COMPONENTS\ENEMYSPAWNER.CPP|C:\USERS\SUJAY.SHAH\DESKTOP\DRYENGINE\COMPONENTS\MISSILE.CPP|C:\USERS\SUJAY.SHAH\DESKTOP\DRYENGINE\COMPONENTS\SPRITE.CPP|C:\USERS\SUJAY.SHAH\DESKTOP\DRYENGINE\COMPONENTS\TRANSFORM.CPP|C:\USERS\SUJAY.SHAH\DESKTOP\DRYENGINE\COMPONENTS\UPDOWN.CPP|C:\USERS\SUJAY.SHAH\DESKTOP\DRYENGINE\COMPONENTS\WRAPAROUND.CPP|C:\USERS\SUJAY.SHAH\DESKTOP\DRYENGINE\COMPONENTS\WRAPDESTROY.CPP|C:\USERS\SUJAY.SHAH\DESKTOP\DRYENGINE\GAMEOBJECT\GAMEOBJECT.CPP|C:\USERS\SUJAY.SHAH\DESKTOP\DRYENGINE\GAMEOBJECT\OBJECTFACTORY.CPP|C:\USERS\SUJAY.SHAH\DESKTOP\DRYENGINE\GRAPHICS\SHADER.CPP|C:\USERS\SUJAY.SHAH\DESKTOP\DRYENGINE\MAIN.CPP|C:\USERS\SUJAY.SHAH\DESKTOP\DRYENGINE\MANAGERS\COLLISIONMANAGER.CPP|C:\USERS\SUJAY.SHAH\DESKTOP\DRYENGINE\MANAGERS\EVENTMANAGER.CPP|C:\USERS\SUJAY.SHAH\DESKTOP\DRYENGINE\MANAGERS\FRAMERATECONTROLLER.CPP|C:\USERS\SUJAY.SHAH\DESKTOP\DRYENGINE\MANAGERS\GAMEOBJECTMANAGER.CPP|C:\USERS\SUJAY.SHAH\DESKTOP\DRYENGINE\MANAGERS\INPUTMANAGER.CPP|C:\USERS\SUJAY.SHAH\DESKTOP\DRYENGINE\MANAGERS\PHYSICSMANAGER.CPP|C:\USERS\SUJAY.SHAH\DESKTOP\DRYENGINE\MANAGERS\RENDERMANAGER.CPP|C:\USERS\SUJAY.SHAH\DESKTOP\DRYENGINE\MANAGERS\RESOURCEMANAGER.CPP|C:\USERS\SUJAY.SHAH\DESKTOP\DRYENGINE\MATHS\MATH2D.CPP|C:\USERS\SUJAY.SHAH\DESKTOP\DRYENGINE\MATHS\MATRIX2D.CPP|C:\USERS\SUJAY.SHAH\DESKTOP\DRYENGINE\MATHS\VECTOR2D.CPP
C:\USERS\SUJAY.SHAH\DESKTOP\DRYENGINE\DEBUG\CONTROLLER.OBJ
C:\USERS\SUJAY.SHAH\DESKTOP\DRYENGINE\DEBUG\UPDOWN.OBJ
C:\USERS\SUJAY.SHAH\DESKTOP\DRYENGINE\DEBUG\MATRIX2D.OBJ
C:\USERS\SUJAY.SHAH\DESKTOP\DRYENGINE\DEBUG\ENEMYSPAWNER.OBJ
C:\USERS\SUJAY.SHAH\DESKTOP\DRYENGINE\DEBUG\RESOURCEMANAGER.OBJ
C:\USERS\SUJAY.SHAH\DESKTOP\DRYENGINE\DEBUG\WRAPAROUND.OBJ
C:\USERS\SUJAY.SHAH\DESKTOP\DRYENGINE\DEBUG\ASTEROIDSPAWNER.OBJ
C:\USERS\SUJAY.SHAH\DESKTOP\DRYENGINE\DEBUG\PHYSICSMANAGER.OBJ
C:\USERS\SUJAY.SHAH\DESKTOP\DRYENGINE\DEBUG\WRAPDESTROY.OBJ
C:\USERS\SUJAY.SHAH\DESKTOP\DRYENGINE\DEBUG\BODY.OBJ
C:\USERS\SUJAY.SHAH\DESKTOP\DRYENGINE\DEBUG\SPRITE.OBJ
C:\USERS\SUJAY.SHAH\DESKTOP\DRYENGINE\DEBUG\MISSILE.OBJ
C:\USERS\SUJAY.SHAH\DESKTOP\DRYENGINE\DEBUG\SHADER.OBJ
C:\USERS\SUJAY.SHAH\DESKTOP\DRYENGINE\DEBUG\INPUTMANAGER.OBJ
C:\USERS\SUJAY.SHAH\DESKTOP\DRYENGINE\DEBUG\MAIN.OBJ
C:\USERS\SUJAY.SHAH\DESKTOP\DRYENGINE\DEBUG\COMPONENT.OBJ
C:\USERS\SUJAY.SHAH\DESKTOP\DRYENGINE\DEBUG\GAMEOBJECT.OBJ
C:\USERS\SUJAY.SHAH\DESKTOP\DRYENGINE\DEBUG\RENDERMANAGER.OBJ
C:\USERS\SUJAY.SHAH\DESKTOP\DRYENGINE\DEBUG\COLLISIONMANAGER.OBJ
C:\USERS\SUJAY.SHAH\DESKTOP\DRYENGINE\DEBUG\OBJECTFACTORY.OBJ
C:\USERS\SUJAY.SHAH\DESKTOP\DRYENGINE\DEBUG\MATH2D.OBJ
C:\USERS\SUJAY.SHAH\DESKTOP\DRYENGINE\DEBUG\EVENTMANAGER.OBJ
C:\USERS\SUJAY.SHAH\DESKTOP\DRYENGINE\DEBUG\FRAMERATECONTROLLER.OBJ
C:\USERS\SUJAY.SHAH\DESKTOP\DRYENGINE\DEBUG\GAMEOBJECTMANAGER.OBJ
C:\USERS\SUJAY.SHAH\DESKTOP\DRYENGINE\DEBUG\TRANSFORM.OBJ
C:\USERS\SUJAY.SHAH\DESKTOP\DRYENGINE\DEBUG\VECTOR2D.OBJ
^C:\USERS\SUJAY.SHAH\DESKTOP\DRYENGINE\COMPONENTS\ASTEROIDSPAWNER.CPP
C:\USERS\SUJAY.SHAH\DESKTOP\DRYENGINE\DEBUG\VC140.PDB
^C:\USERS\SUJAY.SHAH\DESKTOP\DRYENGINE\COMPONENTS\BODY.CPP
C:\USERS\SUJAY.SHAH\DESKTOP\DRYENGINE\DEBUG\VC140.PDB
^C:\USERS\SUJAY.SHAH\DESKTOP\DRYENGINE\GRAPHICS\SHADER.CPP
C:\USERS\SUJAY.SHAH\DESKTOP\DRYENGINE\DEBUG\VC140.PDB
^C:\USERS\SUJAY.SHAH\DESKTOP\DRYENGINE\MANAGERS\COLLISIONMANAGER.CPP
C:\USERS\SUJAY.SHAH\DESKTOP\DRYENGINE\DEBUG\VC140.PDB
^C:\USERS\SUJAY.SHAH\DESKTOP\DRYENGINE\COMPONENTS\COMPONENT.CPP
C:\USERS\SUJAY.SHAH\DESKTOP\DRYENGINE\DEBUG\VC140.PDB
^C:\USERS\SUJAY.SHAH\DESKTOP\DRYENGINE\COMPONENTS\CONTROLLER.CPP
C:\USERS\SUJAY.SHAH\DESKTOP\DRYENGINE\DEBUG\VC140.PDB
^C:\USERS\SUJAY.SHAH\DESKTOP\DRYENGINE\MANAGERS\EVENTMANAGER.CPP
C:\USERS\SUJAY.SHAH\DESKTOP\DRYENGINE\DEBUG\VC140.PDB
^C:\USERS\SUJAY.SHAH\DESKTOP\DRYENGINE\MANAGERS\FRAMERATECONTROLLER.CPP
C:\USERS\SUJAY.SHAH\DESKTOP\DRYENGINE\DEBUG\VC140.PDB
^C:\USERS\SUJAY.SHAH\DESKTOP\DRYENGINE\GAMEOBJECT\GAMEOBJECT.CPP
C:\USERS\SUJAY.SHAH\DESKTOP\DRYENGINE\DEBUG\VC140.PDB
^C:\USERS\SUJAY.SHAH\DESKTOP\DRYENGINE\MANAGERS\GAMEOBJECTMANAGER.CPP
C:\USERS\SUJAY.SHAH\DESKTOP\DRYENGINE\DEBUG\VC140.PDB
^C:\USERS\SUJAY.SHAH\DESKTOP\DRYENGINE\MANAGERS\INPUTMANAGER.CPP
C:\USERS\SUJAY.SHAH\DESKTOP\DRYENGINE\DEBUG\VC140.PDB
^C:\USERS\SUJAY.SHAH\DESKTOP\DRYENGINE\MAIN.CPP
C:\USERS\SUJAY.SHAH\DESKTOP\DRYENGINE\DEBUG\VC140.PDB
^C:\USERS\SUJAY.SHAH\DESKTOP\DRYENGINE\GAMEOBJECT\OBJECTFACTORY.CPP
C:\USERS\SUJAY.SHAH\DESKTOP\DRYENGINE\DEBUG\VC140.PDB
^C:\USERS\SUJAY.SHAH\DESKTOP\DRYENGINE\MANAGERS\PHYSICSMANAGER.CPP
C:\USERS\SUJAY.SHAH\DESKTOP\DRYENGINE\DEBUG\VC140.PDB
^C:\USERS\SUJAY.SHAH\DESKTOP\DRYENGINE\MANAGERS\RESOURCEMANAGER.CPP
C:\USERS\SUJAY.SHAH\DESKTOP\DRYENGINE\DEBUG\VC140.PDB
^C:\USERS\SUJAY.SHAH\DESKTOP\DRYENGINE\COMPONENTS\SPRITE.CPP
C:\USERS\SUJAY.SHAH\DESKTOP\DRYENGINE\DEBUG\VC140.PDB
^C:\USERS\SUJAY.SHAH\DESKTOP\DRYENGINE\COMPONENTS\TRANSFORM.CPP
C:\USERS\SUJAY.SHAH\DESKTOP\DRYENGINE\DEBUG\VC140.PDB
^C:\USERS\SUJAY.SHAH\DESKTOP\DRYENGINE\COMPONENTS\UPDOWN.CPP
C:\USERS\SUJAY.SHAH\DESKTOP\DRYENGINE\DEBUG\VC140.PDB
^C:\USERS\SUJAY.SHAH\DESKTOP\DRYENGINE\MANAGERS\RENDERMANAGER.CPP
C:\USERS\SUJAY.SHAH\DESKTOP\DRYENGINE\DEBUG\VC140.PDB
^C:\USERS\SUJAY.SHAH\DESKTOP\DRYENGINE\COMPONENTS\WRAPAROUND.CPP
C:\USERS\SUJAY.SHAH\DESKTOP\DRYENGINE\DEBUG\VC140.PDB
^C:\USERS\SUJAY.SHAH\DESKTOP\DRYENGINE\COMPONENTS\WRAPDESTROY.CPP
C:\USERS\SUJAY.SHAH\DESKTOP\DRYENGINE\DEBUG\VC140.PDB
^C:\USERS\SUJAY.SHAH\DESKTOP\DRYENGINE\COMPONENTS\MISSILE.CPP
C:\USERS\SUJAY.SHAH\DESKTOP\DRYENGINE\DEBUG\VC140.PDB
^C:\USERS\SUJAY.SHAH\DESKTOP\DRYENGINE\MATHS\MATH2D.CPP
C:\USERS\SUJAY.SHAH\DESKTOP\DRYENGINE\DEBUG\VC140.PDB
^C:\USERS\SUJAY.SHAH\DESKTOP\DRYENGINE\MATHS\MATRIX2D.CPP
C:\USERS\SUJAY.SHAH\DESKTOP\DRYENGINE\DEBUG\VC140.PDB
^C:\USERS\SUJAY.SHAH\DESKTOP\DRYENGINE\MATHS\VECTOR2D.CPP
C:\USERS\SUJAY.SHAH\DESKTOP\DRYENGINE\DEBUG\VC140.PDB
^C:\USERS\SUJAY.SHAH\DESKTOP\DRYENGINE\COMPONENTS\ENEMYSPAWNER.CPP
C:\USERS\SUJAY.SHAH\DESKTOP\DRYENGINE\DEBUG\VC140.PDB
C:\USERS\SUJAY.SHAH\DESKTOP\DRYENGINE\DEBUG\VC140.IDB
C:\USERS\SUJAY.SHAH\DESKTOP\DRYENGINE\DEBUG\ENEMYSPAWNER.OBJ
