^C:\USERS\2J\DESKTOP\DIGI ASS\GIT\CS-529\ASTEROID\PROJECT1_PART2\PROJECT1_PART2\SRC\GAMESTATEMGR.C|C:\USERS\2J\DESKTOP\DIGI ASS\GIT\CS-529\ASTEROID\PROJECT1_PART2\PROJECT1_PART2\SRC\GAMESTATE_ASTEROIDS.C|C:\USERS\2J\DESKTOP\DIGI ASS\GIT\CS-529\ASTEROID\PROJECT1_PART2\PROJECT1_PART2\SRC\MAIN.C|C:\USERS\2J\DESKTOP\DIGI ASS\GIT\CS-529\ASTEROID\PROJECT1_PART2\PROJECT1_PART2\SRC\MATH2D.C|C:\USERS\2J\DESKTOP\DIGI ASS\GIT\CS-529\ASTEROID\PROJECT1_PART2\PROJECT1_PART2\SRC\MATRIX2D.C|C:\USERS\2J\DESKTOP\DIGI ASS\GIT\CS-529\ASTEROID\PROJECT1_PART2\PROJECT1_PART2\SRC\VECTOR2D.C
C:\USERS\2J\DESKTOP\DIGI ASS\GIT\CS-529\ASTEROID\PROJECT1_PART2\PROJECT1_PART2\DEBUG\VC140.PDB
C:\USERS\2J\DESKTOP\DIGI ASS\GIT\CS-529\ASTEROID\PROJECT1_PART2\PROJECT1_PART2\DEBUG\VC140.IDB
C:\USERS\2J\DESKTOP\DIGI ASS\GIT\CS-529\ASTEROID\PROJECT1_PART2\PROJECT1_PART2\DEBUG\GAMESTATEMGR.OBJ
C:\USERS\2J\DESKTOP\DIGI ASS\GIT\CS-529\ASTEROID\PROJECT1_PART2\PROJECT1_PART2\DEBUG\GAMESTATE_ASTEROIDS.OBJ
C:\USERS\2J\DESKTOP\DIGI ASS\GIT\CS-529\ASTEROID\PROJECT1_PART2\PROJECT1_PART2\DEBUG\MAIN.OBJ
C:\USERS\2J\DESKTOP\DIGI ASS\GIT\CS-529\ASTEROID\PROJECT1_PART2\PROJECT1_PART2\DEBUG\MATH2D.OBJ
C:\USERS\2J\DESKTOP\DIGI ASS\GIT\CS-529\ASTEROID\PROJECT1_PART2\PROJECT1_PART2\DEBUG\MATRIX2D.OBJ
C:\USERS\2J\DESKTOP\DIGI ASS\GIT\CS-529\ASTEROID\PROJECT1_PART2\PROJECT1_PART2\DEBUG\VECTOR2D.OBJ
^C:\USERS\2J\DESKTOP\DIGI ASS\GIT\CS-529\ASTEROID\PROJECT1_PART2\PROJECT1_PART2\SRC\GAMESTATEMGR.C
C:\USERS\2J\DESKTOP\DIGI ASS\GIT\CS-529\ASTEROID\PROJECT1_PART2\PROJECT1_PART2\DEBUG\VC140.PDB
^C:\USERS\2J\DESKTOP\DIGI ASS\GIT\CS-529\ASTEROID\PROJECT1_PART2\PROJECT1_PART2\SRC\GAMESTATE_ASTEROIDS.C
C:\USERS\2J\DESKTOP\DIGI ASS\GIT\CS-529\ASTEROID\PROJECT1_PART2\PROJECT1_PART2\DEBUG\VC140.PDB
C:\USERS\2J\DESKTOP\DIGI ASS\GIT\CS-529\ASTEROID\PROJECT1_PART2\PROJECT1_PART2\DEBUG\VC140.IDB
C:\USERS\2J\DESKTOP\DIGI ASS\GIT\CS-529\ASTEROID\PROJECT1_PART2\PROJECT1_PART2\DEBUG\GAMESTATE_ASTEROIDS.OBJ
^C:\USERS\2J\DESKTOP\DIGI ASS\GIT\CS-529\ASTEROID\PROJECT1_PART2\PROJECT1_PART2\SRC\MAIN.C
C:\USERS\2J\DESKTOP\DIGI ASS\GIT\CS-529\ASTEROID\PROJECT1_PART2\PROJECT1_PART2\DEBUG\VC140.PDB
^C:\USERS\2J\DESKTOP\DIGI ASS\GIT\CS-529\ASTEROID\PROJECT1_PART2\PROJECT1_PART2\SRC\MATH2D.C
C:\USERS\2J\DESKTOP\DIGI ASS\GIT\CS-529\ASTEROID\PROJECT1_PART2\PROJECT1_PART2\DEBUG\VC140.PDB
^C:\USERS\2J\DESKTOP\DIGI ASS\GIT\CS-529\ASTEROID\PROJECT1_PART2\PROJECT1_PART2\SRC\MATRIX2D.C
C:\USERS\2J\DESKTOP\DIGI ASS\GIT\CS-529\ASTEROID\PROJECT1_PART2\PROJECT1_PART2\DEBUG\VC140.PDB
^C:\USERS\2J\DESKTOP\DIGI ASS\GIT\CS-529\ASTEROID\PROJECT1_PART2\PROJECT1_PART2\SRC\VECTOR2D.C
C:\USERS\2J\DESKTOP\DIGI ASS\GIT\CS-529\ASTEROID\PROJECT1_PART2\PROJECT1_PART2\DEBUG\VC140.PDB
